<svg xmlns="http://www.w3.org/2000/svg" width="179.031" height="126.187" viewBox="0 0 179.031 126.187">
  <defs>
    <style>
      .cls-1 {
        fill: #FCE640;
        fill-rule: evenodd;
      }
    </style>
  </defs>
  <path id="icon_forword" class="cls-1" d="M422,451V571a4.5,4.5,0,0,0,2,2,4.624,4.624,0,0,0,4,0l82-57v55a3.358,3.358,0,0,0,6,2l84-59a3.557,3.557,0,0,0,1-2,3.655,3.655,0,0,0-1-3l-84-60a3.938,3.938,0,0,0-5,0,3.611,3.611,0,0,0-1,3v56l-83-59a3.373,3.373,0,0,0-4,0A2.991,2.991,0,0,0,422,451Z" transform="translate(-422 -448.094)"/>
</svg>
