<svg xmlns="http://www.w3.org/2000/svg" width="179.031" height="126.187" viewBox="0 0 179.031 126.187">
  <defs>
    <style>
      .cls-1 {
        fill: #212121;
        fill-rule: evenodd;
      }
    </style>
  </defs>
  <path id="icon_backword" class="cls-1" d="M593.031,309V429a4.494,4.494,0,0,1-2,2,4.624,4.624,0,0,1-4,0l-82-57v55a3.358,3.358,0,0,1-6,2l-84-59a3.563,3.563,0,0,1-1-2,3.659,3.659,0,0,1,1-3l84-60a3.938,3.938,0,0,1,5,0,3.611,3.611,0,0,1,1,3v56l83-59a3.373,3.373,0,0,1,4,0A2.991,2.991,0,0,1,593.031,309Z" transform="translate(-414 -306.094)"/>
</svg>
